{
	"main": {
		"all": [
			{ "button": "n", "key": "n", "class": "someclass", "anchor": "n" },
			{ "button": "ne", "anchor": "ne" },
			{ "button": "nw", "anchor": "nw" },
			{ "button": "e", "key": "E", "anchor": "e" },
			{ "button": "s", "key": "s", "anchor": "s" },
			{ "button": "se", "anchor": "se" },
			{ "button": "sw", "anchor": "sw" },
			{ "button": "w", "key": "w", "anchor": "w" },
			{ "button": "c", "key": "c", "anchor": "c" }
		]
	}
}
