{
	"main": {
		"loop": {
			"random": [
				{ "image": "./test_media/a.png", "wait": { "delay": 0.1 } },
				{ "image": "./test_media/b.png", "wait": { "delay": 0.1 } },
				{ "image": "./test_media/c.png", "wait": { "delay": 0.1 } },
				{ "image": "./test_media/d.png", "wait": { "delay": 0.1 } },
				{ "image": "./test_media/e.png", "wait": { "delay": 0.1 } }
			],
			"ratio": [ 10000, 1000, 100, 10, 1 ]
		}
	}
}
